<?xml version="1.0" encoding="utf-8"?>
<!-- Generator: Adobe Illustrator 19.0.0, SVG Export Plug-In . SVG Version: 6.00 Build 0)  -->
<svg version="1.1" id="Layer_1" xmlns="http://www.w3.org/2000/svg" xmlns:xlink="http://www.w3.org/1999/xlink" x="0px" y="0px"
	 viewBox="0 0 1092 263" style="enable-background:new 0 0 1092 263;" xml:space="preserve">
<style type="text/css">
	.st0{fill:#FFFFFF;}
</style>
<g id="XMLID_130_">
	<path id="XMLID_131_" class="st0" d="M817.9753,165.9016c-0.4482,0.5466-0.8689,1.1382-1.7073,1.0574
		c0.1687-0.6799,0.5039-1.0925,1.0664-1.1379c-0.5625,0.0454-0.8979,0.458-1.0679,1.1382
		c-0.1348,0.1506-0.2964,0.1893-0.4846,0.1163c-0.1821-0.2946-0.3245-0.6254-0.554-0.8771c0.2295,0.2517,0.3718,0.5825,0.552,0.8777
		c-0.9814,1.3586-2.5459,1.785-3.9722,2.3606c-0.782,0.3156-1.7966,1.6267-2.4863,0.4453c-0.728-1.2468,0.9697-1.2012,1.5295-1.7993
		c1.3354-1.4272,1.6311-3.4988,0.5361-4.9114c-1.2043-1.5542-2.1782,0.5266-3.2283,1.045c-0.7478,0.3691-1.3884,0.9486-2.1145,1.369
		c-7.3997,4.2837-14.2456,9.0769-16.7419,17.9377c-0.1384,0.4911-0.4316,0.8328-1.0266,0.6409
		c-0.666,0.2914-1.7817-0.1167-1.7783,1.2133c0.0015,0.6024,0.2378,0.7611,0.7983,0.8517c0.6904,0.1113,1.9077-0.626,1.9146,0.7739
		c0.0054,1.0796-0.8853,1.5453-1.9324,1.6971c-0.3054,0.0443-0.5684,0.3802-0.8508,0.5824
		c-0.1157,1.1921-0.3772,2.9717,1.366,2.5974c5.5645-1.1948,11.2913-1.6388,16.1418-5.526c3.113-2.4946,6.9268-4.2257,10.25-6.5814
		c0.3875-0.0366,0.7749-0.0734,1.1621-0.1101c0.4177-0.0537,0.8994-0.1545,1.3411-0.175c-0.4417,0.0205-0.9233,0.1213-1.3411,0.175
		c3.4043-2.707,5.157-7.1425,9.4871-8.9167c1.7195-0.7045,1.1204-2.1257,0.5483-3.3816
		C822.9451,166.7263,820.5918,165.6472,817.9753,165.9016z"/>
	<path id="XMLID_133_" class="st0" d="M786.4272,189.2825c-0.4548,0.2375-0.8362,0.5308-1.168,0.8763
		C785.5911,189.8132,785.9724,189.5201,786.4272,189.2825z"/>
	<path id="XMLID_134_" class="st0" d="M826.5371,171.6094c0.1211-0.6047,0.2427-1.2095,0.3645-1.8152
		c-0.0002,0.0002-0.0005,0.0005-0.0007,0.0007C826.7798,170.3997,826.6584,171.0045,826.5371,171.6094z"/>
	<path id="XMLID_135_" class="st0" d="M826.1091,171.9482c0.1465-0.1057,0.2898-0.219,0.428-0.3389
		c-0.1377,0.1194-0.2808,0.2322-0.4282,0.3389C826.1089,171.9482,826.1089,171.9482,826.1091,171.9482z"/>
	<path id="XMLID_136_" class="st0" d="M781.6604,185.2394c0.0308,0.0422,0.0664,0.1014,0.1003,0.1544
		c-0.0337-0.053-0.0693-0.1119-0.1003-0.1545V185.2394z"/>
	<rect id="XMLID_137_" x="706.79" y="186.3185" class="st0" width="0.0013" height="0.0009"/>
	<path id="XMLID_138_" class="st0" d="M814.2888,156.91c0.7583,0.7115,0.6516,1.5967,0.6282,2.4655
		c0.0234-0.8688,0.1304-1.7539-0.627-2.4657c-0.072-0.8137-0.3677-1.0525-0.7842-0.9984
		C813.9221,155.8574,814.2175,156.0963,814.2888,156.91z"/>
	<path id="XMLID_139_" class="st0" d="M813.7617,157.3529c0.1743-0.1471,0.3501-0.295,0.5271-0.4429
		c-0.177,0.1478-0.3525,0.2955-0.5278,0.4432C813.7612,157.3533,813.7615,157.353,813.7617,157.3529z"/>
	<path id="XMLID_140_" class="st0" d="M822.7095,173.898c-0.1628,0.2273-0.3025,0.4775-0.396,0.7726
		C822.407,174.3755,822.5464,174.1254,822.7095,173.898z"/>
	<path id="XMLID_141_" class="st0" d="M947.4014,151.7048c-2.585,0.9609-5.3005-0.7913-7.7773,0.5731
		c-1.8274-0.892-3.426-0.5263-4.9487,0.2656c1.5227-0.7919,3.1208-1.1483,4.9465-0.2557
		c-4.1775,1.5118-8.1775,3.5316-12.5674,4.4324c-0.6201,0.4189-1.2402,1.2799-1.8582,1.2799c0.0002,0,0.0005,0,0.001,0
		c-1.0352,2-4.9697,2.4744-4.7837,5.885c0.4575,0.4133,0.9158,0.8041,1.3738,1.2188l0.0002,0.0001
		c5.2485-1.9591,10.1938-4.8265,15.9312-5.3235l0.0239-0.0212c1.6467-0.9424,2.0803-3.3632,4.3386-3.56
		c1.1477-2.4296,3.0093,0.4057,4.3506-0.5892c0.2397-0.792,0.7134-1.3761,1.4961-1.6869
		C947.5464,153.1912,947.9109,151.5154,947.4014,151.7048z"/>
	<path id="XMLID_142_" class="st0" d="M826.218,167.4656c0.5571,0.2361,0.8066,0.8081,1.0415,1.396
		C827.0244,168.2732,826.7749,167.7012,826.218,167.4656z"/>
	<path id="XMLID_145_" class="st0" d="M0,0v263h1092v-54.1123V0H0z M224.9375,76.7528c-3.6396,2.4042-7.8787,2.7963-11.6984,4.5289
		c-3.829,1.7369-7.7478,3.6143-11.6422,5.314c-6.8744,3.0002-13.5894,6.4565-20.3538,9.7002
		c-7.2656,3.4841-13.5303,8.7205-21.3652,11.2412c-3.9641,1.2754-7.3889,4.3018-10.9753,6.6615
		c-8.7467,5.755-17.4226,11.618-26.1837,17.3507c-1.6761,1.0969-3.6061,1.8093-5.4297,2.6763
		c-4.2804,2.0352-6.5546,6.4099-10.7656,8.7415c-9.0839,5.0295-16.4164,12.7305-25.7982,17.4666
		c-1.595,0.8052-2.6345,3.1738-4.1447,4.7048c-3.2461,3.2911-7.1588,5.7509-10.4581,8.9512
		c-3.1899,3.0942-4.6372,7.1953-6.585,11.0125c-0.0339,0.0664,0.0736,0.2227,0.14,0.3201c1.7151,2.5159,2.4249,5.8251,5.9133,6.9202
		c1.5353,0.4822,2.6204,1.8966,3.9659,2.8115c5.6284,3.8268,12.0515,4.9153,18.394,6.7593c7.636,2.22,15.2583,0.2505,22.7708,1.6211
		c0.2216,0.0404,0.4314,0.0789,0.6306,0.124c0.5974,0.1357,1.0979,0.333,1.5265,0.8323c0.1877-0.0352,0.3746-0.0334,0.5612,0.0052
		c3.2697-2.3221,7.1505-1.7546,10.7507-1.9427c5.6736-0.2966,11.106-1.679,16.6317-2.679
		c3.5453-0.6415,7.1316-1.0656,10.7083-1.5186c1.2955-0.1641,2.4896,2.5997,3.7899-0.1541c1.58,3.4121-0.4497,4.6414-2.8286,4.8727
		c-6.4319,0.6256-12.5857,2.662-18.9684,3.4493c-10.6115,1.3088-21.2328,2.5349-31.9534,2.3447
		c-0.2079-0.0037-0.4139-0.1163-0.6193-0.2582c-0.2056-0.1417-0.4104-0.3126-0.6162-0.4329
		c-0.6715-0.0039-1.3425-0.0078-2.0139-0.0116c-0.7471-0.0044-1.4944-0.0085-2.2417-0.0129
		c-0.916,0.2466-1.8201,0.3743-2.7144,0.4126c-3.5779,0.1538-7.0028-1.1216-10.4363-1.9275
		c-0.2861-0.0671-0.5723-0.1311-0.8586-0.1907c-4.2368-0.881-8.2626-2.7646-12.3955-4.1653
		c-0.3816-0.1293-0.7532-0.2683-1.1073-0.428c-0.4476-0.2019-0.8627-0.4434-1.2407-0.7336
		c-0.2201-0.1689-0.4308-0.3502-0.6194-0.561c-0.2565-0.2866-0.4816-0.616-0.6678-0.999c-0.1217-0.0305-0.2297-0.0796-0.3242-0.1478
		c-0.0946-0.0682-0.1755-0.1554-0.2429-0.2616c-5.5676-3.384-9.7441-7.7688-11.0518-14.4724
		c-0.7043-3.6102,1.3247-6.052,3.3403-8.3091c4.2076-4.7119,8.9297-8.825,14.0863-12.6053c4.519-3.3129,9.1151-6.59,13.5406-10.0679
		c4.381-3.443,9.3307-6.1793,13.6003-9.7418c4.0588-3.3865,8.3672-6.3723,12.7166-9.3098
		c7.1157-4.8057,14.28-9.5455,21.4507-14.2677c8.0123-5.2764,16.4675-9.8151,24.3436-15.2603
		c1.7727-1.2255,3.7629-1.9857,5.5594-2.8247c8.1541-3.808,15.4115-9.3138,23.8735-12.4725
		c3.7393-1.3959,7.0884-3.4987,10.4004-5.6212c5.3435-3.4246,11.5892-4.6945,17.1548-7.4907
		c1.5254-0.7664,3.0591-1.5096,4.6008-2.2325c4.625-2.1687,9.3215-4.1545,14.0735-6.0316c4.196-1.0693,7.7832-3.4056,11.5103-5.4501
		c1.2422-0.6814,2.5-1.3304,3.801-1.8894c0.3975-0.1707,0.9001-0.0969,1.3538-0.1367c0.7456-0.4492,1.491-0.8984,2.2366-1.3475
		l0.0745-0.0482c0.0103-0.0066,0.0264-0.0171,0.0264-0.0171c0.4712-0.5117,1.0498-0.7424,1.6577-0.897
		c0.6079-0.1544,1.2451-0.2327,1.833-0.4392c0.2788-0.4297,0.6665-0.6353,1.1123-0.7188c0.1479-0.0278,0.3027-0.042,0.4622-0.0468
		c0.2073-0.4214,0.4961-0.6143,0.821-0.7058c0.1982-0.056,0.4104-0.0726,0.6255-0.0819c0.1367-0.0059,0.2742-0.0098,0.4109-0.0159
		c0.2344-0.0107,0.4646-0.0328,0.677-0.104c0.5234-0.1775,1.0466-0.3549,1.5693-0.5322c0.0352-0.4199,0.1616-0.7313,0.4983-0.7944
		c0.1123-0.021,0.2478-0.0144,0.4111,0.0249l0.1714-0.0753c1.7747-0.2079,3.0769-2.8014,5.4033-0.6681
		c1.2629,1.1582,2.3345,2.0048,2.0198,3.8319c-0.2915,1.6909-0.7876,2.7811-2.7695,3.5763c-3.166,1.27-6.3596,2.4984-9.5176,3.8022
		c-4.7402,1.9573-9.9834,1.6917-14.7356,3.9531C237.0347,72.4128,230.3267,73.1929,224.9375,76.7528z M316.9272,87.6223
		c-1.2234,3.0348-3.356,5.4402-4.947,8.2065c-3.1892,5.5459-6.5081,11.0172-9.7793,16.5159
		c-0.052,0.0873-0.2087,0.2024-0.2673,0.1792c-0.1821-0.0717-0.3406-0.2037-0.5083-0.3124
		c-0.2854,0.0096-0.571,0.0194-0.8567,0.0292c-1.7593,2.7861-3.4226,5.6793-5.1599,8.4268
		c-2.6211,4.145-6.7524,7.6099-7.5925,12.8041c-0.0833,0.5153-0.231,0.8621-0.4243,1.092c-0.5803,0.6901-1.571,0.3304-2.4661,0.3241
		c0.075,0.4818,0.106,0.9417,0.0981,1.3818c-0.0288,1.6411-0.6069,3.0062-1.4919,4.2172c-0.7751,1.0607-1.7842,2.0033-2.8784,2.9032
		c-1.6765,1.5505-1.9495,4.1475-3.4124,5.8575c-0.4875,0.5699-1.1072,1.0415-1.9551,1.3429
		c-0.1956,0.8005-0.4065,1.5917-0.7053,2.3293c-0.2546,0.6283-0.5847,1.2104-1.0112,1.7341
		c-0.1653,0.2029-0.3489,0.3948-0.5493,0.5764c-0.1565,0.1418-0.3245,0.2769-0.5054,0.4041
		c-0.1592,0.1119-0.3142,0.2264-0.4941,0.3259c0.134,0.7344-0.1521,1.4495-0.4172,2.1658c-0.0498,0.135-0.0994,0.2704-0.1448,0.4058
		c-0.0718,0.2131-0.1343,0.4266-0.176,0.6411c-0.0415,0.2146-0.0625,0.4302-0.0508,0.647c0.0229,0.4341,0.1758,0.8738,0.551,1.324
		c2.6467-1.9404,4.7983-4.47,7.333-6.5437c0.845-0.6913,1.7324-1.3319,2.6951-1.8831c0.0818-0.2026,0.1809-0.3541,0.3113-0.4136
		c0.1301-0.0593,0.2917-0.0267,0.4985,0.1389c0.4434-0.1201,0.8867-0.2402,1.3318-0.3616
		c-0.0005,0.0005,0.0308-0.0222,0.0688-0.0496l0.1807-0.1305c0.7129-0.8484,1.4824-1.613,2.2979-2.3099
		c0.5-0.4272,1.0225-0.8218,1.5547-1.2018c2.0713-1.4792,4.3618-2.6354,6.7341-3.6709c0.3176-0.3585,0.6584-0.6503,1.0449-0.808
		c0.1931-0.079,0.3979-0.1244,0.6169-0.1279c0.2192-0.0037,0.4529,0.0347,0.7036,0.123c0.2705-0.1234,0.541-0.2469,0.8105-0.3707
		c0.8367-0.6068,3.4871-1.057,5.2285-0.8905c0.5803,0.0557,1.0601,0.1797,1.3376,0.3893c1.7666,1.3341,2.689,3.1637,2.7083,5.5255
		c0.0488,6.0178-3.0938,10.9019-6.2473,15.3987c-3.53,5.0339-6.8215,10.2584-10.6331,15.1123
		c-3.6812,4.6871-6.7759,9.7781-9.627,15.0254c-0.8706,1.6017-1.5767,3.1101-1.7424,4.949
		c-0.1587,1.761-1.2073,2.9403-3.1406,2.6926c-1.7449-0.2235-2.4263-1.4728-2.2947-3.1211
		c0.1975-2.4736,0.1548-5.0575,2.3901-6.8282c4.9585-8.0927,9.0076-16.8671,15.4453-23.8793
		c1.0854-1.1824,1.9961-2.4349,2.7944-3.7324c2.395-3.8922,3.7817-8.1885,5.8643-12.2076c-0.1182-0.093-0.1843-0.1926-0.198-0.299
		c-0.0071-0.0532-0.0007-0.1082,0.0186-0.1649c0.0193-0.0565,0.0515-0.1147,0.0972-0.1748
		c-0.1609-0.3278-0.322-0.6556-0.4827-0.9835c-1.8335-0.0564-3.667-0.1131-5.5002-0.1696l-0.1714,0.2488
		c-0.1458,0.4944-0.4526,0.6569-0.9368,0.4533c-0.9204,0.4146-1.8413,0.8277-2.7634,1.2435
		c-0.0613,0.6208-0.1426,1.1989-0.3833,1.4344c-0.1501,0.1473-0.3665,0.1555-0.677-0.0407
		c-0.1865-0.1177-0.4141-0.3195-0.6782-0.6036l-0.0615-0.0292c-0.0864-0.0199-0.2803-0.0942-0.2847-0.0942
		c-0.0366,0.3835-0.1987,0.6052-0.376,0.8224c-0.2949,0.3627-0.8652,0.3889-1.4551,0.3889l0,0c0.2375,2-0.9866,2.3571-2.1135,2.7047
		c-0.26,0.0802-0.5046,0.3031-0.7095,0.3995c-0.386,0.1816-0.7551,0.3827-1.1111,0.5991c-2.491,1.5149-4.3274,3.7816-6.6931,5.4003
		c-0.1299,2.9885-2.4392,4.3846-4.4124,5.8385c-0.4553,0.3354-0.8926,0.6741-1.2812,1.0359
		c-4.6709,4.3505-9.4414,8.5348-13.655,13.3812c-1.6831,1.9359-3.5808,4.0927-6.353,4.8171
		c-0.7795,0.2037-1.6514,0.6755-2.1091-0.5076c0,0-0.0637-0.0863-0.064-0.0865c-0.2122-0.4375-0.4243-0.8751-0.6365-1.3127
		c0,0-0.0828-0.0789-0.0906-0.0862l-0.0042-0.0042l0,0c-0.1187-0.568-0.3352-1.1497-0.5149-1.7263
		c-0.0505-0.1619-0.0991-0.3235-0.1404-0.4841c-0.3152-1.2212-0.2822-2.3937,1.4314-3.3308c0,0,0.022-0.0348,0.0361-0.0573
		l0.0132-0.0209c0.1143-0.6423,0.5039-1.0231,0.958-1.3428c0.2722-0.1919,0.5679-0.3617,0.8408-0.5529
		c1.2515-2.4948,3.311-4.3452,5.125-6.3859c5.6548-6.3616,9.3459-14.0896,14.5732-20.7744
		c4.0999-5.2432,7.5425-11.0056,11.1685-16.6074c0.1204-0.186,0.2373-0.3418,0.3567-0.4714
		c0.3584-0.3887,0.7397-0.5405,1.3066-0.5553c2.7031-5.8358,6.8604-10.8058,10.2888-16.2131
		c0.3115-0.4916,0.6172-0.9867,0.915-1.4866c0.5962-0.9996,1.1614-2.0175,1.6829-3.0616c0.5217-1.0442,0.9993-2.1147,1.4202-3.2191
		c0.1646-0.432,0.9114-0.642,1.3962-0.9518c-0.0906-0.3594,0.0066-0.5847,0.2573-0.7007c0.0837-0.0386,0.1846-0.0652,0.301-0.0803
		c0.8013-1.8284,1.6802-3.6206,2.5864-5.4001c2.7183-5.3389,5.6799-10.5645,7.5076-16.3165
		c0.0491-0.2373,0.1882-0.392,0.4177-0.4642c0,0,0.1672-0.2507,0.1667-0.2501c0.5923-0.6749,1.1057-1.4963,1.7175-2.1339
		c0.1655-0.1725,0.3359-0.3357,0.5195-0.4739c0.1235-0.0928,0.252-0.1763,0.3862-0.2485c1.2866-0.6914,2.8145-0.3486,3.9951,0.751
		C316.8508,84.7153,317.7178,85.6604,316.9272,87.6223z M416.2646,164.7462c-5.6313,3.8018-7.5898,10.1-10.9678,15.399
		c-1.0474,1.6431-3.0166,2.415-4.124,2.7332c-2.573,0.7393-2.7432-1.7737-2.6909-3.8384c-0.0361-4.0018,3.1519-6.2394,5.3125-8.8425
		c2.6646-3.2107,6.0439-5.8313,9.1411-8.6777c1.0615-0.9755,2.5005-2.3097,3.7258-1.2019
		C418.0159,161.5424,417.0615,164.2083,416.2646,164.7462z M420.5225,132.4685c-0.2878,0.2075-0.5828,0.3242-0.8809,0.3688
		c-0.0994,0.0148-0.199,0.0217-0.2988,0.0212c-1.1992-0.0055-2.4285-1.0634-3.4385-1.9689
		c-1.4741-0.9353-2.5771-2.3719-3.8904-3.5244c-0.0671-0.0588-0.1301-0.1235-0.1985-0.1808
		c-0.0073-0.006-0.0154-0.0107-0.0225-0.0167c-0.2744-0.2288-0.5586-0.4448-0.8589-0.6387
		c-0.6165-0.3977-1.2981-0.7072-2.0891-0.8691c-0.4656-0.2234-0.9312-0.4469-1.3967-0.6704c0,0-0.1313-0.1105-0.1313-0.1104
		c-0.2866-0.0038-0.5732-0.0073-0.8599-0.011c-0.4058,0.1196-0.812,0.2393-1.2178,0.3589
		c-6.1392,0.2904-12.2188,1.8242-17.343,4.7457c-2.2039,1.2565-4.4224,2.6068-6.5781,4.0765
		c-1.3064,0.8906-2.575,1.8423-3.8179,2.8259c-0.8079,0.6396-1.6133,1.2828-2.3823,1.9656
		c-0.5657,0.4258-1.1179,0.8645-1.6711,1.3022c-0.4712,0.3726-0.9365,0.7504-1.3984,1.1318
		c-2.0042,1.6558-3.9272,3.39-5.7446,5.2283c-0.0178,0.0181-0.0366,0.0352-0.0547,0.0532
		c-0.0361,0.0369-0.0706,0.0759-0.1067,0.1128c-1.3323,1.3562-2.6135,2.7629-3.8352,4.2292
		c-1.2551,1.5061-2.4497,3.0728-3.5796,4.7048c-3.2012,4.6233-6.3159,9.3525-9.9722,13.6016
		c-3.3801,3.928-7.6765,6.9744-10.79,11.2954c-1.1606,1.6107-3.9619,0.6794-5.5708-1.2118
		c-1.5718-1.8478-1.4429-3.3927,0.5264-4.8601c0.2363-0.176,0.4641-0.3634,0.6865-0.558c0.6672-0.584,1.2859-1.233,1.939-1.8357
		c0.0046-0.0903,0.0347-0.1512,0.0845-0.1897c0.0444-0.0347,0.104-0.052,0.1851-0.0454c0.3677-1.3372,0.9602-2.5032,1.8394-3.4502
		c0.5276-0.5684,1.1587-1.0577,1.9065-1.458c2.1321-2.3835,4.1118-4.8136,5.8203-7.594c1.6733-2.7234,4.8064-4.4766,6.6711-7.2535
		c1.335-1.089,2.6699-2.1781,4.0049-3.267c-0.0132-0.0569,0.0005-0.0994,0.0103-0.1442c0.0093-0.0416,0.0288-0.0778,0.0579-0.109
		c0.0308-0.0327,0.0564-0.0681,0.1094-0.0893c0.0178-0.2059,0.0574-0.3845,0.1201-0.5342c0.0503-0.1199,0.1262-0.207,0.2063-0.2892
		c0.02-0.0204,0.0286-0.0536,0.0505-0.0717c0.2195-0.1812,0.5339-0.241,0.9556-0.1686c0.4104-0.5491,0.8293-1.0839,1.2708-1.6002
		c1.3242-1.5486,2.8047-2.9216,4.6089-3.9621c0.5325-0.4172,1.0488-0.8319,1.5813-1.2491
		c4.1296-3.5242,8.7908-6.3602,12.5234-10.3651c2.3943-2.3553,4.9377-4.298,7.884-5.6168c1.7678-0.7913,3.5635-1.3339,5.5635-1.6187
		V123h0.2607c0.1299,0,0.3145-0.6129,0.5334-0.7866c0.6572-0.5212,1.6252-0.52,2.3638-0.8933
		c0.4722-0.1648,0.9446-0.3296,1.4167-0.4944c3.9009-1.9137,8.1235-3.2686,12.3223-2.2712c5.46,1.2969,10.6323,3.5814,13.1885,9.283
		C421.8433,129.5281,421.5474,131.7297,420.5225,132.4685z M449.0034,121.944c-1.3286,2.7679-3.7607,4.2322-6.2405,5.9403
		c-1.2612-0.8999-3.178-1.4736-2.9829-3.1456c0.343-2.9425,1.1284-5.8429,3.5715-7.9845c2.3276-2.0405,3.9978-0.2655,5.7153,0.8568
		C451.1992,119.0044,449.7322,120.4258,449.0034,121.944z M509.2954,112.749c-1.4778,2.0139-3.6294,2.9612-5.8364,3.3074
		c-4.9756,0.7806-8.9409,3.3-12.6423,6.4465c-0.6409,0.5449-1.1555,1.4817-1.8708,1.6571
		c-5.9766,1.4653-8.7483,6.7365-12.0581,10.8999c-2.7332,3.4381-4.104,8.2931-0.7632,12.6683
		c3.1921,4.1803,6.0715,8.6117,10.7979,11.4453c3.1675,1.8989,5.9165,4.7664,6.7119,8.3445
		c0.6521,2.9341-2.6238,4.8302-3.9658,7.2928c-3.3621,6.1687-10.1123,6.9921-15.5405,9.8402
		c-5.8721,3.0808-12.1821,5.2925-17.8044,8.9102c-0.4167,0.2681-0.9402,0.3706-1.4924,0.4287
		c-0.552,0.058-1.1326,0.0715-1.6641,0.1616c-0.4319,0.04-0.7485-0.0925-1.0359-0.3101c-0.4792-0.3624-0.8779-0.9604-1.5957-1.3872
		c1.803-1.1537,3.5945-2.3,5.3772-3.4409c5.3489-3.4225,10.6204-6.7957,15.8918-10.1687c0.4998-0.3326,0.9993-0.6655,1.4988-0.9982
		c0.0881-0.0587,0.1763-0.1176,0.2646-0.1764c0.0935-0.061,0.1875-0.1221,0.281-0.1831c0.1221-0.0796,0.2444-0.1592,0.3665-0.2389
		c0.1409-0.3588,0.3411-0.6373,0.6025-0.8312c0.2612-0.1937,0.5864-0.3027,0.9753-0.3225c0.5066-0.215,1.0164-0.4299,1.5227-0.645
		c2.0654-1.7981,4.1372-3.5962,6.2024-5.3943c0,0,0.0332-0.0205,0.0527-0.041l0.0657-0.0403
		c0.2134-0.2963,0.415-0.571,0.5305-0.8357c0.6167-1.4111,0.0693-2.4087-0.7654-3.3477c-0.5879-0.6611-1.4019-1.2961-1.4019-2.0308
		c0,0.0027,0,0.0054,0,0.0082c-4-4.6273-9.3784-7.5773-11.7607-13.4597c-0.8623-2.1292-1.6924-4.1932-2.0063-6.1893
		c-0.9424-5.9883,0.8137-11.364,6.6589-16.0439c1.929-2.8188,4.6277-4.6377,7.5574-6.1558
		c0.4185-0.2169,0.8418-0.4277,1.2681-0.6343c5.0205-4.5173,10.166-8.897,16.4678-11.5356
		c2.7595-1.1553,5.6929-1.2302,8.5186,0.2007C510.1533,110.6841,510.2505,111.4475,509.2954,112.749z M624.8208,206.7295
		c-3.0652,0.2501-6.1274,0.5386-9.1936,0.7729c-0.5513,0.042-1.2839,0.1799-1.4119-0.6838
		c-0.1204-0.814,0.5208-0.9563,1.1033-1.1161c3.0032-0.8236,6.0105-1.6249,9.217-1.5997c1.314-0.6583,2.0398-0.0068,2.2227,1.2843
		C626.9795,206.9491,625.749,206.6538,624.8208,206.7295z M642.0034,201.0393c-1.3623,0.5806-2.6379,1.4691-3.9165,2.2965
		c-0.8115,0.5253-1.5066,1.3019-2.3801,1.6399c-0.8123,0.3142-1.7708-0.1628-2.1616-0.9125
		c-0.3984-0.7644,0.251-1.5325,0.9629-1.6398c2.2986-0.3462,4.1907-1.8534,6.8447-1.4508
		C641.5718,201.0059,641.7876,201.0215,642.0034,201.0393c1.3057-0.5564,2.6917-0.8254,4.2373-0.4805
		C644.8694,200.9436,643.4683,201.1599,642.0034,201.0393z M756.1387,165.2966c-0.9814,4.2457-4.5005,6.6692-7.8669,8.8748
		c-0.0986,0.0647-0.1926,0.1479-0.2842,0.2432c-0.2346,0.2432-0.459,0.5586-0.71,0.8378c-0.1128,0.1255-0.2332,0.2389-0.3621,0.337
		c-0.0327,0.0249-0.0615,0.057-0.0957,0.0793c-0.3508,0.2295-0.7773,0.3116-1.3506,0.0566
		c-0.4148,0.1516-0.8296,0.3031-1.2446,0.4546c-10.1843,5.6902-20.8423,10.1719-32.2571,12.7676
		c-0.2642,0.0601-0.5139,0.0889-0.7537,0.0925c-0.719,0.0107-1.3484-0.2063-2.0125-0.4911
		c-0.1931,0.1427-0.3904,0.2742-0.5896,0.3997c-0.314,0.1976-0.6367,0.3702-0.9705,0.5129
		c-0.2192,0.0939-0.4417,0.179-0.6711,0.2438c-0.4805,0.1355-0.9851,0.2029-1.521,0.1829
		c-4.8091,0.9905-9.4751,2.7875-14.5122,2.487c-1.6819-0.1003-3.2993,0.2777-4.72,1.2261
		c-3.8247,2.553-8.2839,1.5597-12.4417,2.1637c-3.304,0.4801-6.0535,3.1097-9.6443,2.273
		c-4.1677-0.9712-7.636,1.9736-11.6887,2.2104c-1.8267,0.1067-3.6138,1.0823-5.6736,0.4462
		c-0.1794-0.0554-0.3586-0.0992-0.5339-0.1384c3.0271-0.8491,5.9089-2.4954,9.0398-3.0391
		c7.0332-1.2216,13.8911-3.5344,20.8635-4.653c7.5967-1.2188,14.6626-3.804,21.9492-5.8363c0.4492-0.1254,0.8501-0.21,1.2954-0.2452
		c1.1128-0.0879,2.1155-0.044,3.1748-0.314c0.2114-0.054,0.4424-0.2087,0.4424-0.2953V186c0,0,0.376,0,0.3765,0
		c1.1375,0,2.2749,0.1554,3.4121,0.1466c1.616-1.6353,3.4583-2.5161,5.4426-3.2054c1.9841-0.6892,4.1104-1.0142,6.2939-1.1917
		c0.0002,0,0.0002,0,0.0002,0.0001h0.0002c0.2622,0.1261,0.5247,0.2523,0.7864,0.3768c0.1997,0.0361,0.3992,0.0645,0.5996,0.0864
		c0.6653-0.7207,1.2429-1.5515,2.2771-1.8069c6.3015-3.2229,12.988-5.635,19.0571-9.3846c2.0242-1.2505,4.176-2.1406,5.7795-4.0372
		c0.9094-1.0759,1.4175-2.2546,0.6147-3.2224c-1.9951-2.4059-3.5583-5.0308-6.4795-6.8628
		c-1.3647-0.8558-2.7961-1.5814-4.2329-2.2913c-2.3945-1.1833-4.8032-2.3229-6.9399-3.9492c-1.6147-0.575-3.2297-1.15-4.8445-1.7251
		c-5.2708-2.2545-10.4407-4.6687-16.0303-6.2285c-2.7878-0.7781-5.759-2.2986-7.8311-4.7681
		c-5.1455-0.9482-7.7915-5.3113-11.24-8.4797c-1.7371-1.5959-0.6816-9.3372,1.3762-10.6167
		c3.3567-2.0874,6.7222-4.1802,10.2405-5.9495c2.1992-1.1057,4.4578-2.0851,6.811-2.8577c0.8313-0.2727,1.6765-0.5149,2.5327-0.7324
		c0.1138-0.0289,0.2251-0.0623,0.3394-0.0901c0.2463-0.0601,0.4971-0.1105,0.7456-0.1655c0.2429-0.054,0.4836-0.1128,0.7285-0.1617
		c2.4946-2.087,6.0056-2.15,8.4854-4.264c-0.0002-0.0002-0.0002-0.0005-0.0005-0.0007c2.6008-0.7917,4.9258-2.1674,7.3074-3.4161
		c0.7937-0.4163,1.594-0.8185,2.4126-1.1802c4.1624-1.8392,7.8396-4.4784,11.7009-6.7996c1.4019-0.8427,2.3877-1.5667,3.0098-2.3373
		c1.3689-1.6956,0.978-3.6169-0.6135-7.524l-0.0542-0.0437c-0.0259-0.0209-0.053-0.0428-0.0769-0.0621l-0.0408-0.033
		c-2.7698,0.2225-5.0203-1.4148-7.3684-2.3657c-12.1753-4.9304-25.1177-6.531-37.9053-8.1667
		c-7.4368-0.9514-15.1614-1.0852-22.7-1.646c-6.5525-0.4877-12.7983,0.6824-19.188,0.7742
		c-2.5012,0.036-4.1147,1.2886-5.4766,3.3712c-2.718,4.1571-5.3259,8.474-8.6292,12.1393
		c-4.5176,5.0127-6.4883,11.5586-10.5415,16.6538c-6.6223,8.3242-10.2031,18.4387-16.7524,26.7522
		c-2.3167,2.9406-3.0981,6.8267-5.4297,9.8433c-2.9956,3.876-4.416,8.6343-7.3252,12.6886
		c-2.3594,3.2877-3.6431,7.611-5.6067,11.3734c-0.1602,0.3071-0.3142,0.6179-0.4648,0.9309
		c-1.054,2.1904-1.9399,4.4834-3.6301,6.3147c0.0015,0.0089,0.0029,0.0178,0.0042,0.0269c0.053,0.3323,0.1057,0.6647,0.1587,0.9971
		c0.0188,0.9656-0.1152,1.8705-0.4468,2.6973c-0.2195,0.5479-0.5227,1.0627-0.9368,1.5334c-0.1484,0.1688-0.3105,0.3323-0.4868,0.49
		c-0.0054,0.123-0.0374,0.2285-0.0957,0.3167c-0.0581,0.0879-0.1428,0.1583-0.2539,0.2114
		c-0.1455,0.6646-0.311,1.3267-0.4731,1.9893c-0.1567,0.6403-0.3103,1.281-0.4331,1.9252
		c-0.0833,0.4369-0.1531,0.8751-0.2019,1.3158c-0.3118,2.813-0.7988,5.5862,1.9568,7.8835c1.0657,0.8884,2.9639,3.2194-0.3638,4.403
		l-0.0505,0.0399c-0.0244,0.3037-0.1353,0.4766-0.3611,0.4746c-0.0752-0.0007-0.1633-0.0208-0.2651-0.0618
		c-0.0215,0.0774-0.0576,0.1357-0.1084,0.175c-0.051,0.0393-0.1167,0.0596-0.1975,0.0608
		c-1.0007,0.8296-1.6384,0.4163-2.1724-0.3522c-0.0764-0.1097-0.1506-0.2268-0.2234-0.3485l-0.0974-0.1595
		c-0.1965-0.1869-0.3928-0.3737-0.5894-0.5605l-0.032-0.0204c-0.0205-0.0132-0.0457-0.0293-0.0706-0.0453l-0.0657-0.042
		c-0.3018-0.0509-0.5002-0.1639-0.6357-0.3148c-0.2034-0.2263-0.2649-0.5382-0.3193-0.8542
		c-0.0547-0.3159-0.1023-0.636-0.2781-0.8792c-4.3225-7.4779-0.2949-14.0006,2.6602-20.4542
		c1.345-2.9371,1.1392-6.6295,4.054-8.8328c0.8518-4.9849,4.7573-8.4973,6.3364-13.1263c0.71-2.0808,1.6646-4.022,2.7363-5.8965
		c1.7869-3.124,3.8994-6.0627,5.7488-9.1519c-0.0144-0.0881-0.0176-0.1699-0.0117-0.2463c0.0298-0.3823,0.2913-0.6316,0.5486-0.8833
		c0.103-0.1006,0.2053-0.2017,0.292-0.3118c0.0908-0.1648,0.1653-0.339,0.2297-0.5192c0.1155-0.3234,0.1985-0.6656,0.2854-1.0057
		c0.0239-0.0935,0.0513-0.1851,0.0767-0.2778c0.1387-0.5092,0.3066-1.0013,0.636-1.3997c0.2429-0.2939,0.5723-0.5378,1.0381-0.7024
		c0.0303-0.1243,0.0818-0.2306,0.155-0.3188c0.0735-0.0883,0.1682-0.1584,0.2849-0.2107c0.7715-1.3318,1.5293-2.6718,2.2795-4.0164
		c5.2505-9.4119,10.1196-19.0513,16.6262-27.7148c1.8533-3.0786,3.5525-6.2587,5.5242-9.2598
		c1.1826-1.8003,2.4639-3.5366,3.9351-5.1481c0.0271-1.2827,0.4771-2.3508,1.0945-3.3296c0.4631-0.734,1.0205-1.4181,1.5642-2.1047
		c0.1814-0.2289,0.3611-0.458,0.5352-0.6893c1.5574-2.0684,1.2869-2.7852-1.437-2.9009c-3.4395-0.1465-6.6348,0.4463-9.7097,1.8978
		c-0.1738,0.082-0.3474,0.1663-0.5208,0.2478c-1.2136,0.5709-2.4153,1.0122-3.593-0.319c-0.0002-0.0002-0.0002-0.0004-0.0002-0.0005
		c0-0.0002-0.0002-0.0002-0.0002-0.0004h0.0002c0-0.0004-0.0002-0.0005-0.0002-0.0009c-0.0002,0-0.0005,0-0.0007,0
		c-1.1445-3.0137,0.8623-4.3362,3-5.5894c1.4089-1.2305,3.0737-1.0786,4.7129-1.0654c0.1492,0.0012,0.2979,0.0012,0.4463-0.001
		c0.5938-0.009,1.1804-0.0546,1.7471-0.2098c0.5439-0.1671,1.0876-0.3344,1.6316-0.5013c0.9597-0.3789,1.9192-0.7576,2.8787-1.1364
		l0.2563-0.0679c5.7239-1.41,11.5664-1.1219,17.3848-1.267c4.3987-0.1096,8.7825-0.6191,13.198-0.304
		c5.2363,0.3735,10.4817,0.6194,15.7209,0.9514c0.3328,0.0211,0.6672,0.0288,1.0029,0.0293
		c2.3484,0.0027,4.7476-0.354,6.9207,1.0045c0.0574-0.0894,0.1179-0.1647,0.1816-0.2273c0.3191-0.3158,0.7109-0.3175,1.1162-0.2599
		c0.1621,0.0229,0.3264,0.0555,0.489,0.0812c1.3889-0.0565,2.7629-0.0186,4.1262,0.0886c2.1365,0.1678,4.2441,0.5194,6.3242,1.0492
		c1.1357,0.2893,2.2637,0.6287,3.3845,1.0146c1.0222-0.2097,1.9307,0.0093,2.7085,0.7197c0.5251-0.7446,1.0601-1.0532,2.1111-0.7769
		c9.1948,2.4177,18.6438,3.8416,27.467,7.7081c2.9111,1.2756,5.5859,2.7599,7.9573,4.7549
		c4.1375,3.4808,3.8367,6.6714-0.1934,10.3746c-3.4343,3.1558-7.1326,6.0393-11.0098,8.4363
		c-1.7644,1.0907-3.543,2.1687-5.3484,3.1989c-0.7441,0.4247-1.4941,0.8385-2.2483,1.2445
		c-2.6672,1.4359-5.4031,2.7373-8.2444,3.8013c-0.6907,0.2585-1.386,0.5062-2.0896,0.735c-0.051,0.0165-0.1011,0.0352-0.1521,0.0515
		c-0.2986,0.0959-0.6008,0.1832-0.9019,0.2733c-0.2002,0.0599-0.3987,0.1245-0.6001,0.1819
		c-1.0085,0.2869-2.0315,0.5402-3.0703,0.7554c-0.2456,0.365-0.5479,0.606-0.8833,0.7747
		c-0.0808,0.0405-0.1655,0.0728-0.2498,0.1057c-0.0325,0.0127-0.063,0.0288-0.0959,0.0405c-0.4727,0.168-0.9907,0.238-1.4976,0.3317
		c-0.4668,0.5308-0.9839,0.9613-1.5369,1.3209c-2.0266,1.3193-4.5356,1.689-6.7961,2.5811
		c-0.4109,0.1621-0.8137,0.3416-1.2039,0.5471c-1.5964,0.8411-3.2188,1.8174-4.9163,2.6628
		c-0.7273,0.3621-1.4717,0.6912-2.2302,0.9844c-0.2681,0.1038-0.5391,0.1989-0.8118,0.2903
		c-0.7539,0.2532-1.522,0.4678-2.3159,0.6016c-0.4255,1.6654-0.5786,3.2178-0.2,4.5997c0.3789,1.3827,1.2903,2.5946,2.9944,3.5781
		c0.498,0.2875,1.0151,0.5885,1.4937,0.9421c0.7971,0.5892,1.4858,1.3241,1.7969,2.3839c0.1978-0.0657,0.3352-0.0295,0.4124,0.1078
		c0.0256,0.0458,0.0447,0.1029,0.0571,0.1713c1.9822-0.1893,3.1267,1.5942,4.71,2.0796c6.0488,1.854,11.2371,5.6332,17.5432,7.088
		c4.5154,1.0417,8.9031,3.4514,12.8008,6.0663c2.5327,1.6992,5.4854,2.2146,8.0088,4.0786
		c0.5598,0.4136,1.0779,0.8518,1.5706,1.3049c0.4924,0.4532,0.9595,0.9214,1.4165,1.3945c0.2285,0.2366,0.4546,0.4744,0.6802,0.7122
		c0.6714,0.708,1.3386,1.416,2.0535,2.0918c0.0056,0.0052,0.0107,0.0107,0.0164,0.016c0.2256,0.2198,0.4512,0.4398,0.6765,0.6598
		C754.0347,160.7844,756.814,162.375,756.1387,165.2966z M830.248,173.6948c-7.7593,6.9772-16.0149,13.3898-24.7339,19.051
		c-5.5002,3.571-11.8005,5.8809-18.7698,5.5498c-3.8096-0.1809-4.9387-2.6133-6.343-5.4177
		c-1.8672-3.7278-1.7314-7.2209,0.4312-10.6108c3.8149-5.9803,8.6421-11.5925,14.199-15.4148
		c5.9241-4.0752,11.3679-9.1522,18.1145-12.0018c2.8757-1.2145,5.4304-2.9839,8.228-4.3278
		c2.2056-1.0593,4.2241-0.3562,6.2683-0.834c0.7581-0.1771,1.2605,0.3251,1.4202,1.2413c0.3186,1.8312-3.1792,7.3959-4.7466,6.8517
		c-3.8833-1.3479-6.2114,1.8613-9.3599,2.4498c-0.0005,0.0007-0.0361,0.03-0.0361,0.03c0.1609,0.9617-2.4858,3.1732,1.1519,2.5872
		l0.0371,0.004c2.6233-1.7878,5.3574-2.0725,8.2207-0.6064c5.4109-0.8721,8.7202,1.2527,8.6792,5.5686
		c0.0002-0.0001,0.0005-0.0002,0.0007-0.0002C834.3076,170.8113,831.9504,172.1638,830.248,173.6948z M900.0225,150.5066
		c-0.2739,1.1335-1.4492,0.8716-2.3735,1.1135c-6.366,1.666-12.8159,2.7087-18.0522,7.6472
		c-4.2568,4.0145-9.6301,6.8448-14.5088,10.2009c0.0005-0.0006-0.0994,0.1353-0.0994,0.1353
		c-2.9426,4.0757-7.3059,6.526-11.1082,9.6069c-1.1694,0.9475-2.7935,2.6772-4.2695,0.4993
		c-1.2454-1.8369-2.0874-4.2863,0.1006-5.8799c7.4028-5.3923,13.8311-12.0881,22.2168-16.1902
		c4.3672-2.1364,8.3396-5.0645,12.6147-7.4084c4.231-2.3197,8.6067-4.4294,13.5872-1.9868
		C899.1082,148.724,900.3572,149.121,900.0225,150.5066z M954.4727,155.8462c-7.2551,5.4482-14.865,10.0288-24.0173,11.439
		c-0.1174,0.0181-0.2869-0.0642-0.3562-0.0071c-5.2175,4.2882-11.9529,2.8943-17.8462,4.6958
		c-2.5872,0.7908-3.741,2.1763-4.0586,4.5931c-0.3611,2.7457,1.5405,2.7516,3.5491,3.3461
		c7.4397,2.2023,13.1597-1.885,19.1479-4.884c1.5452-0.7739,2.6506-2.4849,4.6294-2.4438c1.2451,0.0258,3.0989-0.5906,3.3457,1.1831
		c0.1897,1.3623-0.095,3.2078-1.8213,3.8809c-5.8789,2.2927-11.1599,5.7971-17.2693,7.7952
		c-2.9734,0.9724-5.6575,1.4141-8.6621,1.6261c-7.6333,0.5389-11.8379-5.0106-9.3262-12.4274
		c2.2031-6.5046,5.6245-11.9292,11.8594-15.3213c1.1536-0.6277,1.9363-1.3264,3.0322-0.1742
		c0.564-0.8846,1.1279-1.7692,1.6919-2.6538c4.6013-4.1947,10.6353-5.6659,16.0073-8.3928
		c1.0535-0.5348,2.4727-0.6151,2.7026-2.0693c0.5344-3.3763,2.0967-3.8269,4.8018-1.9601c2.5181,1.7378,5.687,0.1581,8.3264,1.4528
		c0,0,0.1321,0.0302,0.1316,0.0299c0.6636-0.1633,1.1274,0.1841,1.5605,0.6094c0.23-0.0732,0.4321-0.0264,0.6064,0.1407
		c2.4722,0.2706,4.1802,1.7867,4.4827,4.0446C957.2673,152.4163,956.4763,154.3413,954.4727,155.8462z M1036.5042,156.7751
		c-2.5642,6.9075-7.6958,12.5057-10.4941,19.3558c-0.5393,1.3207-2.3838,2.4407-3.3472,2.1376
		c-1.469-0.4619-1.9119-2.3518-1.6616-4.0238c0.4417-2.9486,1.9417-5.5856,3.6519-7.7911c3.1289-4.0349,4.3682-8.7556,5.771-13.3977
		c1.6052-5.3112-3.1104-9.3638-8.7397-8.1592c-9.9458,2.1282-18.7944,6.7095-27.5417,11.6287
		c-9.1516,5.1465-17.2861,11.8145-26.1689,17.3652c-1.6765,1.0477-2.7678,2.9888-4.3342,4.2664
		c-2.5906,2.1129-5.9167,1.8628-7.3279-0.3381c-1.2632-1.9708,0.3672-5.0908,2.6421-6.937c2.8884-2.3442,5.7612-4.9797,7.78-8.0547
		c2.5242-3.8448,6.9001-4.7317,10.009-7.5133c0.5166-0.4623,1.3909-0.3405,2.0479,0.1436c3.2593,2.4003,5.9678,0.6337,8.7534-1.076
		c5.8787-3.6082,11.5737-7.6392,18.1604-9.854c6.1902-2.0814,12.0598-5.073,18.7078-5.9318
		c0.5566-0.0719,1.0991-0.1183,1.6289-0.1388c0.5852-0.0226,1.1516-0.0063,1.7068,0.0347c2.9629,0.2183,5.5237,1.3394,7.9033,3.4421
		c0.0002,0.0002,0.0002,0.0004,0.0007,0.0005c0,0.0002,0.0002,0.0002,0.0002,0.0004c0.3069,0.2277,0.3223,0.4838,0.262,0.7472
		c-0.0359,0.1581-0.0986,0.3187-0.1423,0.4778c0.1682,0.314,0.3364,0.6282,0.5046,0.9421c0.1667,0.0425,0.2488,0.1498,0.2461,0.3218
		C1038.9727,148.5376,1037.9705,152.8262,1036.5042,156.7751z"/>
	<path id="XMLID_158_" class="st0" d="M918.7737,161.5276c-0.1453,0.3712-0.2212,0.7292-0.1328,1.0588
		C918.5525,162.2568,918.6284,161.8987,918.7737,161.5276z"/>
</g>
<g id="XMLID_27_">
</g>
<g id="XMLID_28_">
</g>
<g id="XMLID_29_">
</g>
<g id="XMLID_30_">
</g>
<g id="XMLID_31_">
</g>
<g id="XMLID_32_">
</g>
<g id="XMLID_33_">
</g>
<g id="XMLID_34_">
</g>
<g id="XMLID_35_">
</g>
<g id="XMLID_36_">
</g>
<g id="XMLID_37_">
</g>
<g id="XMLID_38_">
</g>
<g id="XMLID_39_">
</g>
<g id="XMLID_40_">
</g>
<g id="XMLID_41_">
</g>
</svg>
