<?xml version="1.0" encoding="utf-8"?>
<!-- Generator: Adobe Illustrator 19.0.0, SVG Export Plug-In . SVG Version: 6.00 Build 0)  -->
<svg version="1.1" id="Layer_1" xmlns="http://www.w3.org/2000/svg" xmlns:xlink="http://www.w3.org/1999/xlink" x="0px" y="0px"
	 viewBox="-243 245 512 512" style="enable-background:new -243 245 512 512;" xml:space="preserve">
<g>
	<path d="M22.229,609.383c-5.207-3.826-5.758-9.575-5.758-9.575l-1.951-12.473h-62.204l-1.957,12.473c0,0-0.544,5.749-5.748,9.575
		c-5.198,3.83-9.306,7.113-5.198,7.669c3.955,0.531,41.256,0.048,44.008,0c2.759,0.048,40.052,0.531,44.011,0
		C31.531,616.496,27.422,613.221,22.229,609.383z"/>
	<path d="M-122.462,504.694c0-5.77-4.681-10.451-10.452-10.451h-49.633c-5.771,0-10.453,4.681-10.453,10.451v109.718
		c0,5.777,4.682,10.453,10.453,10.453h49.637c5.768,0,10.452-4.676,10.452-10.453V504.694H-122.462z M-162.915,501.9988h10.451
		c0.722,0,1.306,0.583,1.306,1.3c0,0.724-0.584,1.312-1.306,1.312h-10.451c-0.722,0-1.308-0.592-1.308-1.312
		C-164.222,502.5738-163.636,501.9988-162.915,501.9988z M-158.125,622.6882c-2.887,0-5.229-2.338-5.229-5.227
		c0-2.885,2.342-5.227,5.229-5.227c2.885,0,5.225,2.334,5.225,5.227C-152.9,620.3502-155.236,622.6882-158.125,622.6882z
		 M-125.6781,609.0648h-64.1725v-97.7146h64.1736v97.7146H-125.6781z"/>
	<path d="M204.343,434.137H96.846c-8.095,0-14.657,6.558-14.657,14.655v153.854c0,8.096,6.563,14.662,14.657,14.662h107.497
		c8.1,0,14.657-6.566,14.657-14.662V448.789C218.996,440.692,212.439,434.137,204.343,434.137z M150.591,609.153
		c-4.04,0-7.323-3.274-7.323-7.318c0-4.048,3.283-7.33,7.323-7.33c4.052,0,7.326,3.282,7.326,7.33
		C157.917,605.879,154.647,609.153,150.591,609.153z M209.839,587.986H91.35V446.954h118.489V587.986L209.839,587.986z"/>
	<path d="M115.547,421.778h18.017v-32.629c0-6.639-5.379-12.014-12.014-12.014h-276.263c-6.633,0-12.014,5.375-12.014,12.014v92.739
		h18.021v-86.736h264.253V421.778L115.547,421.778z"/>
	<path d="M-110.101,539.287v36.034H69.83v-36.034H-110.101z"/>
</g>
</svg>
